Importing trees with data
…
The get.fields method return a vector of features/attributes that stored in the object and associated with the phylogeny.

get.fields(beast_tree)

##  [1] "height"          "height_0.95_HPD" "height_median"  
##  [4] "height_range"    "length"          "length_0.95_HPD"
##  [7] "length_median"   "length_range"    "posterior"      
## [10] "rate"            "rate_0.95_HPD"   "rate_median"    
## [13] "rate_range"

The get.data method return a tibble of all the associated data.

get.data(beast_tree)

## # A tibble: 151 x 14
##    height height_0.95_HPD height_median height_range length length_0.95_HPD
##     <dbl> <list>                  <dbl> <list>        <dbl> <list>         
##  1   19   <dbl [2]>                19   <dbl [2]>     2.34  <dbl [2]>      
##  2   17   <dbl [2]>                17   <dbl [2]>     1.18  <dbl [2]>      
##  3   14   <dbl [2]>                14   <dbl [2]>     0.966 <dbl [2]>      
##  4   12   <dbl [2]>                12   <dbl [2]>     1.87  <dbl [2]>      
##  5    9   <dbl [2]>                 9   <dbl [2]>     2.93  <dbl [2]>      
##  6   10   <dbl [2]>                10   <dbl [2]>     0.827 <dbl [2]>      
##  7   10   <dbl [2]>                10   <dbl [2]>     0.834 <dbl [2]>      
##  8   10.8 <dbl [2]>                10.8 <dbl [2]>     0.233 <dbl [2]>      
##  9    9   <dbl [2]>                 9   <dbl [2]>     1.28  <dbl [2]>      
## 10    9   <dbl [2]>                 9   <dbl [2]>     0.414 <dbl [2]>      
## # ... with 141 more rows, and 8 more variables: length_median <dbl>,
## #   length_range <list>, posterior <dbl>, rate <dbl>,
## #   rate_0.95_HPD <list>, rate_median <dbl>, rate_range <list>, node <int>

If users are only interesting a subset of the features/attributes return by get.fields, they can extract the information from the output of get.data or directly subset the data by [ or [[.

beast_tree[, c("node", "height")]

## # A tibble: 151 x 2
##     node height
##    <int>  <dbl>
##  1    10   19  
##  2     9   17  
##  3    36   14  
##  4    31   12  
##  5    29    9  
##  6    28   10  
##  7    39   10  
##  8    90   10.8
##  9    16    9  
## 10     2    9  
## # ... with 141 more rows
…
