Tidy bootstrapping
…
An rsplit object has two main components: an analysis dataset and an assessment dataset, accessible via analysis(rsplit) and assessment(rsplit) respectively. For bootstrap samples, the analysis dataset is the bootstrap sample itself, and the assessment dataset consists of all the out of bag samples.

library(dplyr)
library(rsample)
#> Warning: package 'rsample' was built under R version 3.5.1
#> Warning: package 'tidyr' was built under R version 3.5.1
library(broom)
library(purrr)

set.seed(27)

boots <- bootstraps(mtcars, times = 100)
boots
#> # Bootstrap sampling 
#> # A tibble: 100 x 2
#>    splits          id          
#>    <list>          <chr>       
#>  1 <split [32/12]> Bootstrap001
#>  2 <split [32/15]> Bootstrap002
#>  3 <split [32/10]> Bootstrap003
#>  4 <split [32/10]> Bootstrap004
#>  5 <split [32/12]> Bootstrap005
#>  6 <split [32/12]> Bootstrap006
#>  7 <split [32/13]> Bootstrap007
#>  8 <split [32/9]>  Bootstrap008
#>  9 <split [32/9]>  Bootstrap009
#> 10 <split [32/14]> Bootstrap010
#> # ... with 90 more rows
…
fit_nls_on_bootstrap <- function(split) {
    nls(mpg ~ k / wt + b, analysis(split), start = list(k = 1, b = 0))
}

boot_models <- boots %>% 
    mutate(model = map(splits, fit_nls_on_bootstrap),
           coef_info = map(model, tidy))

boot_coefs <- boot_models %>% 
    unnest(coef_info)

The unnested coefficient information contains a summary of each replication combined in a single data frame:

boot_coefs
#> # A tibble: 200 x 6
#>    id           term  estimate std.error statistic  p.value
#>    <chr>        <chr>    <dbl>     <dbl>     <dbl>    <dbl>
#>  1 Bootstrap001 k       42.1        3.76    11.2   2.99e-12
#>  2 Bootstrap001 b        5.76       1.43     4.02  3.60e- 4
#>  3 Bootstrap002 k       46.3        3.72    12.4   2.26e-13
#>  4 Bootstrap002 b        4.10       1.43     2.87  7.38e- 3
#>  5 Bootstrap003 k       56.1        3.80    14.7   2.77e-15
#>  6 Bootstrap003 b        0.935      1.31     0.713 4.82e- 1
#>  7 Bootstrap004 k       43.5        3.39    12.8   1.06e-13
#>  8 Bootstrap004 b        4.83       1.33     3.62  1.06e- 3
#>  9 Bootstrap005 k       41.3        3.74    11.0   4.26e-12
#> 10 Bootstrap005 b        5.37       1.31     4.11  2.81e- 4
#> # ... with 190 more rows
…
Or we can use augment to visualize the uncertainty in the curve:

boot_aug <- boot_models %>% 
    mutate(augmented = map(model, augment)) %>% 
    unnest(augmented)

boot_aug
#> # A tibble: 3,200 x 5
#>    id             mpg    wt .fitted .resid
#>    <chr>        <dbl> <dbl>   <dbl>  <dbl>
#>  1 Bootstrap001  21.4  2.78    20.9  0.484
#>  2 Bootstrap001  22.8  2.32    23.9 -1.12 
#>  3 Bootstrap001  30.4  1.51    33.6 -3.20 
#>  4 Bootstrap001  17.8  3.44    18.0 -0.209
#>  5 Bootstrap001  24.4  3.19    19.0  5.43 
#>  6 Bootstrap001  17.3  3.73    17.1  0.243
#>  7 Bootstrap001  22.8  2.32    23.9 -1.12 
#>  8 Bootstrap001  21    2.62    21.8 -0.841
#>  9 Bootstrap001  18.7  3.44    18.0  0.691
#> 10 Bootstrap001  14.3  3.57    17.6 -3.26 
#> # ... with 3,190 more rows
…
